{
    "page": 1,
    "total_results": 13036,
    "total_pages": 652,
    "results": [
        {
            "vote_count": 34,
            "id": 485811,
            "video": false,
            "vote_average": 4.3,
            "title": "Redcon-1",
            "popularity": 34.705,
            "poster_path": "\/jOYUbe61DQiY628inVkR1KERS30.jpg",
            "original_language": "en",
            "original_title": "Redcon-1",
            "genre_ids": [
                28,
                27
            ],
            "backdrop_path": "\/palbhPOSYf2g1p18vWd91dDhZLM.jpg",
            "adult": false,
            "overview": "After a zombie apocalypse spreads from a London prison, the UK is brought to its knees. The spread of the virus is temporarily contained but, without a cure, it\u2019s only a matter of time before it breaks its boundaries and the biggest problem of all\u2026 any zombies with combat skills are now enhanced. With the South East of England quarantined from the rest of the world using fortified borders, intelligence finds that the scientist responsible for the outbreak is alive and well in London. With his recovery being the only hope of a cure, a squad of eight Special Forces soldiers is sent on a suicide mission to the city, now ruled by the undead, with a single task: get him out alive within 72 hours by any means necessary. What emerges is an unlikely pairing on a course to save humanity against ever-rising odds.",
            "release_date": "2018-09-28"
        },
        {
            "vote_count": 123,
            "id": 176068,
            "video": false,
            "vote_average": 5.4,
            "title": "Plus One",
            "popularity": 5.712,
            "poster_path": "\/48zCLzCwdQ2if7OxKa2i0RVz5sp.jpg",
            "original_language": "en",
            "original_title": "+1",
            "genre_ids": [
                53,
                878
            ],
            "backdrop_path": "\/zaFeVcfUZ9pWujyAzc2Eoic7Xoa.jpg",
            "adult": false,
            "overview": "Three college friends go to the biggest party of the year, each looking for something different: love, sex and a simple human connection. When a supernatural phenomenon disrupts the party, it lights a fuse on what will become the strangest night anyone has ever seen. As the three friends struggle to find what they\u2019re looking for, the party quickly descends into a chaos that challenges if they can stay friends or if they can even stay alive.",
            "release_date": "2013-09-20"
        },
        {
            "vote_count": 25,
            "id": 564147,
            "video": false,
            "vote_average": 7.1,
            "title": "K.G.F: Chapter 1",
            "popularity": 7.793,
            "poster_path": "\/ltHlJwvxKv7d0ooCiKSAvfwV9tX.jpg",
            "original_language": "kn",
            "original_title": "\u0c95\u0cc6\u0c9c\u0cbf\u0c8e\u0cab\u0ccd \u0c85\u0ca7\u0ccd\u0caf\u0cbe\u0caf \u0ce7",
            "genre_ids": [
                28,
                18
            ],
            "backdrop_path": "\/n0z49k6qSB9QilogdbMHblUSZxp.jpg",
            "adult": false,
            "overview": "A period drama set in the 1970s, KGF follows the story of a fierce rebel who rises against the brutal oppression in Kolar Gold Fields and becomes the symbol of hope to legions of downtrodden people.",
            "release_date": "2018-12-20"
        },
        {
            "vote_count": 382,
            "id": 9696,
            "video": false,
            "vote_average": 7,
            "title": "Ichi the Killer",
            "popularity": 12.31,
            "poster_path": "\/mkmwESVpq7KrcxdPMreTFqlNF0S.jpg",
            "original_language": "ja",
            "original_title": "Koroshiya 1",
            "genre_ids": [
                28,
                35,
                80
            ],
            "backdrop_path": "\/bma7e5YWIcvsy1tEuYqEHVY7qO7.jpg",
            "adult": false,
            "overview": "As sadomasochistic yakuza enforcer Kakihara searches for his missing boss he comes across Ichi, a repressed and psychotic killer who may be able to inflict levels of pain that Kakihara has only dreamed of.",
            "release_date": "2001-12-22"
        },
        {
            "vote_count": 5062,
            "id": 50619,
            "video": false,
            "vote_average": 6,
            "title": "The Twilight Saga: Breaking Dawn - Part 1",
            "popularity": 25.486,
            "poster_path": "\/q23U9glt0RJIvM0f7g5BqJbqncx.jpg",
            "original_language": "en",
            "original_title": "The Twilight Saga: Breaking Dawn - Part 1",
            "genre_ids": [
                12,
                14,
                10749
            ],
            "backdrop_path": "\/fwhRNjMmwqeGH35eQonSPmQs2ah.jpg",
            "adult": false,
            "overview": "The new found married bliss of Bella Swan and vampire Edward Cullen is cut short when a series of betrayals and misfortunes threatens to destroy their world. Bella soon discovers she is pregnant, and during a nearly fatal childbirth, Edward finally fulfills her wish to become immortal. But the arrival of their remarkable daughter, Renesmee, sets in motion a perilous chain of events that pits the Cullens and their allies against the Volturi, the fearsome council of vampire leaders, setting the stage for an all-out battle.",
            "release_date": "2011-03-15"
        },
        {
            "vote_count": 51,
            "id": 217316,
            "video": false,
            "vote_average": 7.4,
            "title": "1",
            "popularity": 3.116,
            "poster_path": "\/4uIPXX8DjTsCzUAdtMKHTpojYLq.jpg",
            "original_language": "en",
            "original_title": "1",
            "genre_ids": [
                99
            ],
            "backdrop_path": "\/h8LLsdZGqcMkvouEZbpKKBbbCU6.jpg",
            "adult": false,
            "overview": "Set in the golden era of Grand Prix Racing '1' tells the story of a generation of charismatic drivers who raced on the edge, risking their lives during Formula 1's deadliest period, and the men who stood up and changed the sport forever.",
            "release_date": "2013-09-30"
        },
        {
            "vote_count": 9308,
            "id": 24,
            "video": false,
            "vote_average": 7.9,
            "title": "Kill Bill: Vol. 1",
            "popularity": 27.957,
            "poster_path": "\/v7TaX8kXMXs5yFFGR41guUDNcnB.jpg",
            "original_language": "en",
            "original_title": "Kill Bill: Vol. 1",
            "genre_ids": [
                28,
                80
            ],
            "backdrop_path": "\/kkS8PKa8c134vXsj2fQkNqOaCXU.jpg",
            "adult": false,
            "overview": "An assassin is shot by her ruthless employer, Bill, and other members of their assassination circle \u2013 but she lives to plot her vengeance.",
            "release_date": "2003-10-10"
        },
        {
            "vote_count": 5,
            "id": 49568,
            "video": false,
            "vote_average": 5.9,
            "title": "1",
            "popularity": 1.865,
            "poster_path": "\/vKUno7ycflDRNi65KgZXUbOfQQU.jpg",
            "original_language": "hu",
            "original_title": "1",
            "genre_ids": [
                878,
                53
            ],
            "backdrop_path": "\/3VHZtGn8zJmPv3jQ4zbc4KY0f3i.jpg",
            "adult": false,
            "overview": "A bookshop renowned for its rare works is mysteriously and completely filled with copies of a book entitled 1, which doesn't appear to have a publisher or author. The strange almanac describes what happens to the whole of humanity in the space of a minute. A police investigation begins and the bookshop staff are placed in solitary confinement by the Bureau for Paranormal Research (RDI Reality Defense Institute). As the investigation progresses, the situation becomes more complex and the book increasingly well known, raising numerous controversies (political, scientific, religious and artistic). Plagued by doubts, the protagonist has to face facts: reality only exists in the imagination of individuals.",
            "release_date": "2009-11-05"
        },
        {
            "vote_count": 314,
            "id": 417670,
            "video": false,
            "vote_average": 6.8,
            "title": "Loro 1",
            "popularity": 7.681,
            "poster_path": "\/i5QdLL8eonphitPO64KrUQ3M242.jpg",
            "original_language": "it",
            "original_title": "Loro 1",
            "genre_ids": [
                18
            ],
            "backdrop_path": "\/1KFHukSqkSRxsm2XStCAfNEksvK.jpg",
            "adult": false,
            "overview": "\"Loro\", in two parts, is a period movie that chronicles, as a fiction story, events likely happened in Italy (or even made up) between 2006 and 2010.  \"Loro\" wants to suggest in portraits and glimps, through a composite constellation of characters, a moment in history, now definitively ended, which can be described in a very summary picture of the events as amoral, decadent but extraordinarily alive.  Additionally, \"Loro\" wishes to tell the story of some Italians, fresh and ancient people at the same time: souls from a modern imaginary Purgatory who, moved by heterogeneous intents like ambition, admiration, affection, curiosity, personal interests, establish to try and orbit around the walking Paradise that is the man named Silvio Berlusconi.",
            "release_date": "2018-04-24"
        },
        {
            "vote_count": 1575,
            "id": 11430,
            "video": false,
            "vote_average": 6.5,
            "title": "The Lion King 1\u00bd",
            "popularity": 15.437,
            "poster_path": "\/vDfaIoXTaQLUD5HVAv2hLIFKAcq.jpg",
            "original_language": "en",
            "original_title": "The Lion King 1\u00bd",
            "genre_ids": [
                16,
                35,
                10751
            ],
            "backdrop_path": "\/pql1l2FPU5e4nPxoY2TbYaPwjLj.jpg",
            "adult": false,
            "overview": "Timon the meerkat and Pumbaa the warthog are best pals and the unsung heroes of the African savanna. This prequel to the smash Disney animated adventure takes you back -- way back -- before Simba's adventure began. You'll find out all about Timon and Pumbaa and tag along as they search for the perfect home and attempt to raise a rambunctious lion cub.",
            "release_date": "2004-02-06"
        },
        {
            "vote_count": 10023,
            "id": 131631,
            "video": false,
            "vote_average": 6.8,
            "title": "The Hunger Games: Mockingjay - Part 1",
            "popularity": 37.698,
            "poster_path": "\/gj282Pniaa78ZJfbaixyLXnXEDI.jpg",
            "original_language": "en",
            "original_title": "The Hunger Games: Mockingjay - Part 1",
            "genre_ids": [
                878,
                12,
                53
            ],
            "backdrop_path": "\/4PwyB0ErucIANzW24Kori71J6gU.jpg",
            "adult": false,
            "overview": "Katniss Everdeen reluctantly becomes the symbol of a mass rebellion against the autocratic Capitol.",
            "release_date": "2014-11-18"
        },
        {
            "vote_count": 75,
            "id": 415665,
            "video": false,
            "vote_average": 7,
            "title": "1:54",
            "popularity": 4.537,
            "poster_path": "\/j28i5dr6zqmZSM2u1BkjYxxV5Zv.jpg",
            "original_language": "fr",
            "original_title": "1:54",
            "genre_ids": [
                18
            ],
            "backdrop_path": "\/nEImsGKEKiBv9SAOxY248pw5BvW.jpg",
            "adult": false,
            "overview": "Tim is a bit of a loner. At school he gravitates towards another shy boy and they become friends. But the verbal and physical bullying by a gang of kids, as well as an aggressive use of social media, unsettle Tim\u2019s new mate and he backs away from him \u2013 an act of cowardice which will have serious repercussions. As a result of Tim\u2019s unwillingness to snitch, the bullies appear to get away with their actions, none more so than the gang\u2019s leader Jeff. He\u2019s one of the school\u2019s star athletes, who seems guaranteed a place in the national championships with an 800m time of 1.54 minutes. When Tim decides to start training in order to go up against Jeff, even having a girlfriend as cover, his enemies seem willing to go to any lengths to stop him.",
            "release_date": "2016-10-13"
        },
        {
            "vote_count": 1675,
            "id": 258216,
            "video": false,
            "vote_average": 6.9,
            "title": "Nymphomaniac: Vol. I",
            "popularity": 17.562,
            "poster_path": "\/49HMMZPVJcnUwe2QmVzBfxyLAY2.jpg",
            "original_language": "en",
            "original_title": "Nymphomaniac: Vol. I",
            "genre_ids": [
                18
            ],
            "backdrop_path": "\/t9MElpSTsqNBttwntdevOgQuJDe.jpg",
            "adult": false,
            "overview": "A man named Seligman finds a fainted wounded woman in an alley and he brings her home. She tells him that her name is Joe and that she is nymphomaniac. Joe tells her life and sexual experiences with hundreds of men since she was a young teenager while Seligman tells about his hobbies, such as fly fishing, reading about Fibonacci numbers or listening to organ music.",
            "release_date": "2013-12-25"
        },
        {
            "vote_count": 47,
            "id": 3685,
            "video": false,
            "vote_average": 6.7,
            "title": "Apache Gold",
            "popularity": 6.394,
            "poster_path": "\/44NQoPvMP2uZVjOPGeDo1JQoWFx.jpg",
            "original_language": "de",
            "original_title": "Winnetou 1",
            "genre_ids": [
                37,
                12
            ],
            "backdrop_path": "\/q2qtUxCkJnHwLajYhWku0DhSJCl.jpg",
            "adult": false,
            "overview": "The construction of the Great Western Railroad creates heavy conflict between the railway company and neighboring Indian tribes. Worse, criminal gang leader Santer sets his eyes on a gold mine located on holy Indian land and influences the construction supervisor to re-rout the planned railroad straight through Apache land. Old Shatterhand, who works as a measurement technician, discovers the evil plan and searches contact with the Apaches in an effort to avert war.",
            "release_date": "1963-12-11"
        },
        {
            "vote_count": 7,
            "id": 433288,
            "video": false,
            "vote_average": 5.3,
            "title": "1%",
            "popularity": 2.069,
            "poster_path": "\/vhAYi7wMAdNF8AaG9TM8bFICPFZ.jpg",
            "original_language": "en",
            "original_title": "1%",
            "genre_ids": [
                18
            ],
            "backdrop_path": "\/9pmVDAsri8OqVUJfUiuiiLFjq7r.jpg",
            "adult": false,
            "overview": "When an Australian motorcycle gang leader is released from prison, he finds his former deputy on the cusp of giving control of their lucrative drug trade to a rival gang. When the deal goes south, the ensuing violence threatens to spin out of control as the gangs must contend with external threats and subversion within their own ranks \u2014 culminating in a deadly face-off between the heavily-armed crews in this epic and action-packed biker thriller.",
            "release_date": "2019-02-01"
        },
        {
            "vote_count": 367,
            "id": 10068,
            "video": false,
            "vote_average": 5.9,
            "title": "Nine 1\/2 Weeks",
            "popularity": 12.348,
            "poster_path": "\/ft0NylB71zkkoEnFalNBBDWTXtS.jpg",
            "original_language": "en",
            "original_title": "Nine 1\/2 Weeks",
            "genre_ids": [
                18,
                10749
            ],
            "backdrop_path": "\/g9Ug1tS5JT255V8VrpZBDx2EbVB.jpg",
            "adult": false,
            "overview": "An erotic story about a woman, the assistant of an art gallery, who gets involved in an impersonal affair with a man. She barely knows about his life, only about the sex games they play, so the relationship begins to get complicated.",
            "release_date": "1986-02-14"
        },
        {
            "vote_count": 106,
            "id": 416691,
            "video": false,
            "vote_average": 6.4,
            "title": "1 Night",
            "popularity": 5.336,
            "poster_path": "\/geYX4v0Jy3PvzFei8QL1educKxh.jpg",
            "original_language": "en",
            "original_title": "1 Night",
            "genre_ids": [
                18,
                10749
            ],
            "backdrop_path": "\/oTNBxC679MT0RJl0rmV1x65X6PA.jpg",
            "adult": false,
            "overview": "Thirty-something Elizabeth must decide whether to salvage her disappointing relationship with Drew. Meanwhile, Bea, a worrisome teenager, reconnects with her introverted childhood friend, Andy, at their high school prom. Past and present collide as two couples explore love over the course of one night at a hotel.",
            "release_date": "2017-02-10"
        },
        {
            "vote_count": 10713,
            "id": 12444,
            "video": false,
            "vote_average": 7.7,
            "title": "Harry Potter and the Deathly Hallows: Part 1",
            "popularity": 33.054,
            "poster_path": "\/maP4MTfPCeVD2FZbKTLUgriOW4R.jpg",
            "original_language": "en",
            "original_title": "Harry Potter and the Deathly Hallows: Part 1",
            "genre_ids": [
                12,
                14,
                10751
            ],
            "backdrop_path": "\/8YA36faYlkpfp6aozcGsqq68pZ9.jpg",
            "adult": false,
            "overview": "Harry, Ron and Hermione walk away from their last year at Hogwarts to find and destroy the remaining Horcruxes, putting an end to Voldemort's bid for immortality. But with Harry's beloved Dumbledore dead and Voldemort's unscrupulous Death Eaters on the loose, the world is more dangerous than ever.",
            "release_date": "2010-10-17"
        },
        {
            "vote_count": 219,
            "id": 9805,
            "video": false,
            "vote_average": 6.3,
            "title": "Dreamship Surprise - Period 1",
            "popularity": 7.903,
            "poster_path": "\/w4EZC3GeNwLNo5KNkj4QLOWyGII.jpg",
            "original_language": "de",
            "original_title": "(T)Raumschiff Surprise - Periode 1",
            "genre_ids": [
                35,
                878
            ],
            "backdrop_path": "\/A41kszh8uig7nWIAgEFdY6MzrLx.jpg",
            "adult": false,
            "overview": "Hundreds of years after humans have settled on Mars, Regulator Rogul and Lord Jens Maul, lead a force of Martians to Earth in order to conquer the planet. Queen Metaphor looks to the gay heroes aboard the spaceship Surprise -- Captain Kork, Mr. Spuck, and first engineer Schrotty",
            "release_date": "2004-07-14"
        },
        {
            "vote_count": 23,
            "id": 249772,
            "video": false,
            "vote_average": 5.9,
            "title": "1: Nenokkadine",
            "popularity": 3.058,
            "poster_path": "\/dYpqpA7BsDHeyAGs9AAEPhZmbck.jpg",
            "original_language": "te",
            "original_title": "1 - \u0c28\u0c47\u0c28\u0c4a\u0c15\u0c4d\u0c15\u0c21\u0c3f\u0c28\u0c47",
            "genre_ids": [
                28,
                35,
                10749
            ],
            "backdrop_path": "\/1s7Dxki34YRZcHiglwjbUwYp7MP.jpg",
            "adult": false,
            "overview": "Gautham is a rock star suffering from a mental disorder due to which he loses grip over reality. But he's convinced his parents were murdered by three men and his only goal is revenge.",
            "release_date": "2014-01-10"
        }
    ]
}